{
	"info": {
		"_postman_id": "2038a513-3ad6-4d03-8daf-f877b48262a2",
		"name": "File Monitoring",
		"schema": "https://schema.getpostman.com/json/collection/v2.1.0/collection.json"
	},
	"item": [
		{
			"name": "Get Keywords",
			"request": {
				"method": "GET",
				"header": [],
				"url": {
					"raw": "localhost:3000/keywords",
					"host": [
						"localhost"
					],
					"port": "3000",
					"path": [
						"keywords"
					]
				}
			},
			"response": []
		},
		{
			"name": "Delete Keyword",
			"request": {
				"method": "DELETE",
				"header": [],
				"url": {
					"raw": "localhost:3000/keywords/banane",
					"host": [
						"localhost"
					],
					"port": "3000",
					"path": [
						"keywords",
						"banane"
					]
				}
			},
			"response": []
		},
		{
			"name": "Add Keyword",
			"request": {
				"method": "POST",
				"header": [],
				"body": {
					"mode": "raw",
					"raw": "{\n    \"keyword\": \"banane\"\n}",
					"options": {
						"raw": {
							"language": "json"
						}
					}
				},
				"url": {
					"raw": "localhost:3000/keywords",
					"host": [
						"localhost"
					],
					"port": "3000",
					"path": [
						"keywords"
					]
				}
			},
			"response": []
		},
		{
			"name": "Get Events",
			"request": {
				"method": "GET",
				"header": [],
				"url": {
					"raw": "localhost:3000/events",
					"host": [
						"localhost"
					],
					"port": "3000",
					"path": [
						"events"
					]
				}
			},
			"response": []
		},
		{
			"name": "Delete Events",
			"request": {
				"method": "DELETE",
				"header": [],
				"url": {
					"raw": "localhost:3000/events",
					"host": [
						"localhost"
					],
					"port": "3000",
					"path": [
						"events"
					]
				}
			},
			"response": []
		},
		{
			"name": "Update Status",
			"request": {
				"method": "PUT",
				"header": [],
				"body": {
					"mode": "raw",
					"raw": "{\n    \"monitoring\": \"abc\"\n}",
					"options": {
						"raw": {
							"language": "json"
						}
					}
				},
				"url": {
					"raw": "localhost:3000/status",
					"host": [
						"localhost"
					],
					"port": "3000",
					"path": [
						"status"
					]
				}
			},
			"response": []
		},
		{
			"name": "Get Status",
			"request": {
				"method": "GET",
				"header": [
					{
						"key": "Api-Secret",
						"value": "abcde",
						"type": "default"
					}
				],
				"url": {
					"raw": "localhost:3000/status",
					"host": [
						"localhost"
					],
					"port": "3000",
					"path": [
						"status"
					]
				}
			},
			"response": []
		}
	],
	"auth": {
		"type": "apikey",
		"apikey": [
			{
				"key": "value",
				"value": "abcde",
				"type": "string"
			},
			{
				"key": "key",
				"value": "api-secret",
				"type": "string"
			}
		]
	},
	"event": [
		{
			"listen": "prerequest",
			"script": {
				"type": "text/javascript",
				"exec": [
					""
				]
			}
		},
		{
			"listen": "test",
			"script": {
				"type": "text/javascript",
				"exec": [
					""
				]
			}
		}
	]
}